@startuml

title 팀원모집 게시글 삭제

actor web
participant was
database db

web -> was : 게시글 끌어올리기 요청\n POST /v1/board/update/state
note left
web에 [게시글 끌어올리기] 전용 버튼 존재
end note
was -> db : UseState 업데이트

@enduml